-------------------------------------------------------------------------------
Test set: TDDTest
-------------------------------------------------------------------------------
Tests run: 12, Failures: 0, Errors: 0, Skipped: 0, Time elapsed: 0.026 s - in TDDTest
